{
  "resolution": "main",
  "tree": {
    "src": "https://raw.githubusercontent.com/mikedeboer/node-github/25da4e02fafdc80a5fea1d013720374f93e8a5af/lib/index.d.ts",
    "raw": "github:mikedeboer/node-github/lib/index.d.ts#25da4e02fafdc80a5fea1d013720374f93e8a5af",
    "typings": "https://raw.githubusercontent.com/mikedeboer/node-github/25da4e02fafdc80a5fea1d013720374f93e8a5af/lib/index.d.ts"
  }
}
